{
  "meta": {
    "limit": 2,
    "next": "/api/v1/contact/?limit=2&key=8c9f91b37c3271702d1807017c7bba0b2eb560d2&offset=2",
    "offset": 0,
    "previous": null,
    "total_count": 6357
  },
  "objects": [
    {
      "agent": {
        "cellphone": " 549221-463-4774",
        "email": "sebastian@diegoberruetainmo.com.ar",
        "id": 28773,
        "name": "Rodrigo Sebastian Lorience",
        "phone": "",
        "picture": "https://static.tokkobroker.com/static/img/user_disabled.png",
        "position": ""
      },
      "birthdate": null,
      "cellphone": "",
      "created_at": "2019-11-25T12:42:38",
      "deleted_at": "2019-11-25T12:42:38",
      "document_number": "",
      "email": "anajuli.s@hotmail.com",
      "id": 13254586,
      "is_company": false,
      "is_owner": false,
      "lead_status": "Cerrado",
      "name": "Ana",
      "other_email": "",
      "other_phone": "",
      "phone": "2215592248",
      "related_to_companies": [],
      "tags": [
        {
          "group_name": "Origen de contacto",
          "id": 228215,
          "name": "Zonaprop"
        },
        {
          "group_name": "Pedidos",
          "id": 230572,
          "name": "Web"
        }
      ],
      "work_email": "",
      "work_name": "",
      "work_position": ""
    },
    {
      "agent": {
        "cellphone": " 54-9-221-463-4774",
        "email": "diegoberrueta.db@gmail.com",
        "id": 28663,
        "name": "Diego Berrueta",
        "phone": " 54 9 221 452-8343",
        "picture": "https://static.tokkobroker.com/static/img/user.png",
        "position": ""
      },
      "birthdate": null,
      "cellphone": "",
      "created_at": "2019-11-25T14:37:43",
      "deleted_at": "2019-11-25T14:37:43",
      "document_number": "",
      "email": "",
      "id": 13259536,
      "is_company": false,
      "is_owner": true,
      "lead_status": "Cerrado",
      "name": "propietario de 10 entre 43 y 44 500",
      "other_email": "",
      "other_phone": "",
      "phone": "",
      "related_to_companies": [],
      "tags": [],
      "work_email": "",
      "work_name": "",
      "work_position": ""
    }
  ]
}